{
	"config_name" : "smalldata_1",
	"config_description" : "N = 10",

	"data_path" : "/Users/joostbaptist/Bachelorproject/data/data_50x50/",
	"templates_path" : "/Users/joostbaptist/Bachelorproject/data/templates_50x50/",

	"optimization" : {
		"n" : 10
	},

	"preprocessing" : {
		"methods" : [
			{ 
				"name": "invert", 
				"params" : [ { "min" : 0, "max" : 1, "type" : "random_float" } ] 
			},
			{ 
				"name": "rotate", 
				"params" : [ { "min" : -60, "max" : 60, "type" : "random_float" } ] 
			},
			{ 
				"name": "resize", 
				"params" : [ { "mean" : 1, "sd" : 0.15, "min" : 0.6667, "max" : 1.5, "type" : "gaussian" }, { "mean" : 1, "sd" : 0.15, "min" : 0.6667, "max" : 1.5, "type" : "gaussian" } ] 
			},
			{ 
				"name": "binarisation", 
				"params" : [ { "min" : 20, "max" : 235, "type" : "random_float" } ] 
			}
		]
	}
}